#
## Alias OBJ Material File
# Exported from SketchUp, (c) 2000-2012 Trimble Navigation Limited

newmtl bill
Ka 0.000000 0.000000 0.000000
Kd 1.000000 0.498039 0.000000
Ks 0.330000 0.330000 0.330000

newmtl body
Ka 0.000000 0.000000 0.000000
Kd 1.000000 0.749020 0.000000
Ks 0.330000 0.330000 0.330000

newmtl eye02
Ka 0.000000 0.000000 0.000000
Kd 0.050980 0.050980 0.050980
Ks 0.330000 0.330000 0.330000
map_Kd duckie/eye02.png

